8

https://www.workana.com/
https://www.workana.com/sw.js?sentryUrl=https%3A%2F%2Fa5a7a84f4d654157bdbe12663489c1ff%40reporting.workana.com%2F3
true
{e6397a12-501b-44de-b2c1-38c37ada0bb8}
0
1534448148495209
1534448148495436
1534448146866655
#

https://mail.google.com/mail/u/0/
https://mail.google.com/mail/u/0/sw.js?7026=1&7020=1&7325=1
true
{e81eb924-83a2-4881-a4c4-a957c1e26b7e}
0
1535313642818007
1535313642883518
1535313642156055
#
